%!PS-Adobe-3.0
%%Creator: graphviz version 2.38.0 (20140413.2041)
%%Title: BST
%%Pages: (atend)
%%BoundingBox: (atend)
%%EndComments
save
%%BeginProlog
/DotDict 200 dict def
DotDict begin

/setupLatin1 {
mark
/EncodingVector 256 array def
 EncodingVector 0

ISOLatin1Encoding 0 255 getinterval putinterval
EncodingVector 45 /hyphen put

% Set up ISO Latin 1 character encoding
/starnetISO {
        dup dup findfont dup length dict begin
        { 1 index /FID ne { def }{ pop pop } ifelse
        } forall
        /Encoding EncodingVector def
        currentdict end definefont
} def
/Times-Roman starnetISO def
/Times-Italic starnetISO def
/Times-Bold starnetISO def
/Times-BoldItalic starnetISO def
/Helvetica starnetISO def
/Helvetica-Oblique starnetISO def
/Helvetica-Bold starnetISO def
/Helvetica-BoldOblique starnetISO def
/Courier starnetISO def
/Courier-Oblique starnetISO def
/Courier-Bold starnetISO def
/Courier-BoldOblique starnetISO def
cleartomark
} bind def

%%BeginResource: procset graphviz 0 0
/coord-font-family /Times-Roman def
/default-font-family /Times-Roman def
/coordfont coord-font-family findfont 8 scalefont def

/InvScaleFactor 1.0 def
/set_scale {
       dup 1 exch div /InvScaleFactor exch def
       scale
} bind def

% styles
/solid { [] 0 setdash } bind def
/dashed { [9 InvScaleFactor mul dup ] 0 setdash } bind def
/dotted { [1 InvScaleFactor mul 6 InvScaleFactor mul] 0 setdash } bind def
/invis {/fill {newpath} def /stroke {newpath} def /show {pop newpath} def} bind def
/bold { 2 setlinewidth } bind def
/filled { } bind def
/unfilled { } bind def
/rounded { } bind def
/diagonals { } bind def
/tapered { } bind def

% hooks for setting color 
/nodecolor { sethsbcolor } bind def
/edgecolor { sethsbcolor } bind def
/graphcolor { sethsbcolor } bind def
/nopcolor {pop pop pop} bind def

/beginpage {	% i j npages
	/npages exch def
	/j exch def
	/i exch def
	/str 10 string def
	npages 1 gt {
		gsave
			coordfont setfont
			0 0 moveto
			(\() show i str cvs show (,) show j str cvs show (\)) show
		grestore
	} if
} bind def

/set_font {
	findfont exch
	scalefont setfont
} def

% draw text fitted to its expected width
/alignedtext {			% width text
	/text exch def
	/width exch def
	gsave
		width 0 gt {
			[] 0 setdash
			text stringwidth pop width exch sub text length div 0 text ashow
		} if
	grestore
} def

/boxprim {				% xcorner ycorner xsize ysize
		4 2 roll
		moveto
		2 copy
		exch 0 rlineto
		0 exch rlineto
		pop neg 0 rlineto
		closepath
} bind def

/ellipse_path {
	/ry exch def
	/rx exch def
	/y exch def
	/x exch def
	matrix currentmatrix
	newpath
	x y translate
	rx ry scale
	0 0 1 0 360 arc
	setmatrix
} bind def

/endpage { showpage } bind def
/showpage { } def

/layercolorseq
	[	% layer color sequence - darkest to lightest
		[0 0 0]
		[.2 .8 .8]
		[.4 .8 .8]
		[.6 .8 .8]
		[.8 .8 .8]
	]
def

/layerlen layercolorseq length def

/setlayer {/maxlayer exch def /curlayer exch def
	layercolorseq curlayer 1 sub layerlen mod get
	aload pop sethsbcolor
	/nodecolor {nopcolor} def
	/edgecolor {nopcolor} def
	/graphcolor {nopcolor} def
} bind def

/onlayer { curlayer ne {invis} if } def

/onlayers {
	/myupper exch def
	/mylower exch def
	curlayer mylower lt
	curlayer myupper gt
	or
	{invis} if
} def

/curlayer 0 def

%%EndResource
%%EndProlog
%%BeginSetup
14 default-font-family set_font
1 setmiterlimit
% /arrowlength 10 def
% /arrowwidth 5 def

% make sure pdfmark is harmless for PS-interpreters other than Distiller
/pdfmark where {pop} {userdict /pdfmark /cleartomark load put} ifelse
% make '<<' and '>>' safe on PS Level 1 devices
/languagelevel where {pop languagelevel}{1} ifelse
2 lt {
    userdict (<<) cvn ([) cvn load put
    userdict (>>) cvn ([) cvn load put
} if

%%EndSetup
setupLatin1
%%Page: 1 1
%%PageBoundingBox: 36 36 560 515
%%PageOrientation: Portrait
0 0 1 beginpage
gsave
36 36 524 479 boxprim clip newpath
1 1 set_scale 0 rotate 40 40 translate
% 2147483647
gsave
1 setlinewidth
0 0 0 nodecolor
newpath 354.55 471 moveto
300.55 471 lineto
300.55 435 lineto
354.55 435 lineto
closepath stroke
0 0 0 nodecolor
14 /Arial set_font
319.55 449.3 moveto 16 (inf) alignedtext
grestore
% -2147483648
gsave
1 setlinewidth
0 0 0 nodecolor
newpath 321.55 384 moveto
267.55 384 lineto
267.55 348 lineto
321.55 348 lineto
closepath stroke
0 0 0 nodecolor
14 /Arial set_font
284.55 362.3 moveto 20 (-inf) alignedtext
grestore
% 2147483647->-2147483648
gsave
1 setlinewidth
0 0 0 edgecolor
newpath 320.87 434.8 moveto
316.31 423.05 310.17 407.24 304.97 393.84 curveto
stroke
0 0 0 edgecolor
newpath 308.1 392.23 moveto
301.21 384.18 lineto
301.57 394.76 lineto
closepath fill
1 setlinewidth
solid
0 0 0 edgecolor
newpath 308.1 392.23 moveto
301.21 384.18 lineto
301.57 394.76 lineto
closepath stroke
0 0 0 edgecolor
14 /Times-Roman set_font
312.55 405.8 moveto 29 (L000) alignedtext
grestore
% -2147483648->2147483647
gsave
1 setlinewidth
0.53725 0.24706 0.90196 edgecolor
newpath 298.41 384.44 moveto
300.82 394.2 304.28 406.47 308.55 417 curveto
309.73 419.92 311.09 422.9 312.53 425.84 curveto
stroke
0.53725 0.24706 0.90196 edgecolor
newpath 309.55 427.69 moveto
317.28 434.93 lineto
315.75 424.44 lineto
closepath fill
1 setlinewidth
solid
0.53725 0.24706 0.90196 edgecolor
newpath 309.55 427.69 moveto
317.28 434.93 lineto
315.75 424.44 lineto
closepath stroke
grestore
% -2147483648->-2147483648
gsave
1 setlinewidth
0 0 0 edgecolor
newpath 321.79 373.87 moveto
331.57 374.04 339.55 371.41 339.55 366 curveto
339.55 362.7 336.58 360.44 332.06 359.21 curveto
stroke
0 0 0 edgecolor
newpath 332.1 355.7 moveto
321.79 358.13 lineto
331.37 362.66 lineto
closepath fill
1 setlinewidth
solid
0 0 0 edgecolor
newpath 332.1 355.7 moveto
321.79 358.13 lineto
331.37 362.66 lineto
closepath stroke
0 0 0 edgecolor
14 /Times-Roman set_font
339.55 362.3 moveto 29 (L001) alignedtext
grestore
% 6
gsave
1 setlinewidth
0 0 0 nodecolor
newpath 276.55 297 moveto
222.55 297 lineto
222.55 261 lineto
276.55 261 lineto
closepath stroke
0 0 0 nodecolor
14 /Arial set_font
245.05 275.3 moveto 9 (6) alignedtext
grestore
% -2147483648->6
gsave
1 setlinewidth
0 0 0 edgecolor
newpath 267.5 351.76 moveto
259.23 346.25 251.13 339.01 246.55 330 curveto
243.02 323.07 242.33 314.89 242.91 307.17 curveto
stroke
0 0 0 edgecolor
newpath 246.4 307.49 moveto
244.36 297.09 lineto
239.47 306.49 lineto
closepath fill
1 setlinewidth
solid
0 0 0 edgecolor
newpath 246.4 307.49 moveto
244.36 297.09 lineto
239.47 306.49 lineto
closepath stroke
0 0 0 edgecolor
14 /Times-Roman set_font
246.55 318.8 moveto 30 (R000) alignedtext
grestore
% 10
gsave
1 setlinewidth
0 0 0 nodecolor
newpath 468.55 123 moveto
414.55 123 lineto
414.55 87 lineto
468.55 87 lineto
closepath stroke
0 0 0 nodecolor
14 /Arial set_font
433.05 101.3 moveto 17 (10) alignedtext
grestore
% 10->2147483647
gsave
1 setlinewidth
0 0 0 edgecolor
newpath 449.73 123.15 moveto
457.02 140.01 466.55 166.7 466.55 191 curveto
466.55 367 466.55 367 466.55 367 curveto
466.55 414.85 405.85 436.58 364.68 445.81 curveto
stroke
0 0 0 edgecolor
newpath 363.75 442.43 moveto
354.68 447.9 lineto
365.18 449.28 lineto
closepath fill
1 setlinewidth
solid
0 0 0 edgecolor
newpath 363.75 442.43 moveto
354.68 447.9 lineto
365.18 449.28 lineto
closepath stroke
0 0 0 edgecolor
14 /Times-Roman set_font
466.55 275.3 moveto 30 (R001) alignedtext
grestore
% 10->10
gsave
1 setlinewidth
0 0 0 edgecolor
newpath 468.79 112.87 moveto
478.57 113.04 486.55 110.41 486.55 105 curveto
486.55 101.7 483.58 99.44 479.06 98.21 curveto
stroke
0 0 0 edgecolor
newpath 479.1 94.7 moveto
468.79 97.13 lineto
478.37 101.66 lineto
closepath fill
1 setlinewidth
solid
0 0 0 edgecolor
newpath 479.1 94.7 moveto
468.79 97.13 lineto
478.37 101.66 lineto
closepath stroke
0 0 0 edgecolor
14 /Times-Roman set_font
486.55 101.3 moveto 29 (L001) alignedtext
grestore
% 9
gsave
1 setlinewidth
0 0 0 nodecolor
newpath 363.55 210 moveto
309.55 210 lineto
309.55 174 lineto
363.55 174 lineto
closepath stroke
0 0 0 nodecolor
14 /Arial set_font
332.05 188.3 moveto 9 (9) alignedtext
grestore
% 10->9
gsave
1 setlinewidth
0.53725 0.24706 0.90196 edgecolor
newpath 440.58 123.16 moveto
439.13 133.79 435.68 147.07 427.55 156 curveto
413.61 171.32 392.21 179.99 373.66 184.87 curveto
stroke
0.53725 0.24706 0.90196 edgecolor
newpath 372.65 181.51 moveto
363.72 187.2 lineto
374.25 188.32 lineto
closepath fill
1 setlinewidth
solid
0.53725 0.24706 0.90196 edgecolor
newpath 372.65 181.51 moveto
363.72 187.2 lineto
374.25 188.32 lineto
closepath stroke
grestore
% 9->10
gsave
1 setlinewidth
0 0 0 edgecolor
newpath 355.18 173.9 moveto
366.14 164.03 380.39 151.53 393.55 141 curveto
398.51 137.02 403.87 132.93 409.15 129.01 curveto
stroke
0 0 0 edgecolor
newpath 411.31 131.77 moveto
417.3 123.03 lineto
407.17 126.12 lineto
closepath fill
1 setlinewidth
solid
0 0 0 edgecolor
newpath 411.31 131.77 moveto
417.3 123.03 lineto
407.17 126.12 lineto
closepath stroke
0 0 0 edgecolor
14 /Times-Roman set_font
393.55 144.8 moveto 30 (R000) alignedtext
grestore
% 9->6
gsave
1 setlinewidth
0.53725 0.24706 0.90196 edgecolor
newpath 310.09 210.28 moveto
302.78 215.58 295.07 221.69 288.55 228 curveto
280.91 235.39 273.5 244.31 267.21 252.56 curveto
stroke
0.53725 0.24706 0.90196 edgecolor
newpath 264.24 250.7 moveto
261.12 260.82 lineto
269.87 254.85 lineto
closepath fill
1 setlinewidth
solid
0.53725 0.24706 0.90196 edgecolor
newpath 264.24 250.7 moveto
261.12 260.82 lineto
269.87 254.85 lineto
closepath stroke
grestore
% 7
gsave
1 setlinewidth
0 0 0 nodecolor
newpath 282.55 123 moveto
228.55 123 lineto
228.55 87 lineto
282.55 87 lineto
closepath stroke
0 0 0 nodecolor
14 /Arial set_font
251.05 101.3 moveto 9 (7) alignedtext
grestore
% 9->7
gsave
1 setlinewidth
0 0 0 edgecolor
newpath 313.35 173.79 moveto
306.67 168.4 299.57 162.23 293.55 156 curveto
286.23 148.44 279.03 139.47 272.9 131.24 curveto
stroke
0 0 0 edgecolor
newpath 275.64 129.05 moveto
266.94 123.01 lineto
269.97 133.16 lineto
closepath fill
1 setlinewidth
solid
0 0 0 edgecolor
newpath 275.64 129.05 moveto
266.94 123.01 lineto
269.97 133.16 lineto
closepath stroke
0 0 0 edgecolor
14 /Times-Roman set_font
293.55 144.8 moveto 29 (L000) alignedtext
grestore
% 2
gsave
1 setlinewidth
0 0 0 nodecolor
newpath 210.55 123 moveto
156.55 123 lineto
156.55 87 lineto
210.55 87 lineto
closepath stroke
0 0 0 nodecolor
14 /Arial set_font
179.05 101.3 moveto 9 (2) alignedtext
grestore
% 1
gsave
1 setlinewidth
0 0 0 nodecolor
newpath 204.55 36 moveto
150.55 36 lineto
150.55 0 lineto
204.55 0 lineto
closepath stroke
0 0 0 nodecolor
14 /Arial set_font
173.05 14.3 moveto 9 (1) alignedtext
grestore
% 2->1
gsave
1 setlinewidth
0 0 0 edgecolor
newpath 156.46 92.09 moveto
147.14 86.51 137.75 78.88 132.55 69 curveto
126.96 58.4 133.08 48.27 142.42 39.93 curveto
stroke
0 0 0 edgecolor
newpath 144.72 42.57 moveto
150.43 33.65 lineto
140.4 37.06 lineto
closepath fill
1 setlinewidth
solid
0 0 0 edgecolor
newpath 144.72 42.57 moveto
150.43 33.65 lineto
140.4 37.06 lineto
closepath stroke
0 0 0 edgecolor
14 /Times-Roman set_font
132.55 57.8 moveto 29 (L000) alignedtext
grestore
% 3
gsave
1 setlinewidth
0 0 0 nodecolor
newpath 214.55 210 moveto
160.55 210 lineto
160.55 174 lineto
214.55 174 lineto
closepath stroke
0 0 0 nodecolor
14 /Arial set_font
183.05 188.3 moveto 9 (3) alignedtext
grestore
% 2->3
gsave
1 setlinewidth
0 0 0 edgecolor
newpath 205.34 123.24 moveto
210.29 128.37 214.87 134.41 217.55 141 curveto
220.88 149.23 218.41 157.68 213.73 165.25 curveto
stroke
0 0 0 edgecolor
newpath 210.62 163.55 moveto
207.42 173.65 lineto
216.22 167.75 lineto
closepath fill
1 setlinewidth
solid
0 0 0 edgecolor
newpath 210.62 163.55 moveto
207.42 173.65 lineto
216.22 167.75 lineto
closepath stroke
0 0 0 edgecolor
14 /Times-Roman set_font
219.55 144.8 moveto 30 (R001) alignedtext
grestore
% 2->3
gsave
1 setlinewidth
0.53725 0.24706 0.90196 edgecolor
newpath 173.7 123.02 moveto
169.33 132.65 165.74 144.93 168.55 156 curveto
169.3 158.99 170.37 161.99 171.62 164.92 curveto
stroke
0.53725 0.24706 0.90196 edgecolor
newpath 168.5 166.49 moveto
176.07 173.9 lineto
174.77 163.39 lineto
closepath fill
1 setlinewidth
solid
0.53725 0.24706 0.90196 edgecolor
newpath 168.5 166.49 moveto
176.07 173.9 lineto
174.77 163.39 lineto
closepath stroke
grestore
% 1->2
gsave
1 setlinewidth
0 0 0 edgecolor
newpath 178.76 36.18 moveto
179.58 47.81 180.68 63.42 181.62 76.73 curveto
stroke
0 0 0 edgecolor
newpath 178.14 77.07 moveto
182.33 86.8 lineto
185.12 76.58 lineto
closepath fill
1 setlinewidth
solid
0 0 0 edgecolor
newpath 178.14 77.07 moveto
182.33 86.8 lineto
185.12 76.58 lineto
closepath stroke
0 0 0 edgecolor
14 /Times-Roman set_font
181.55 57.8 moveto 30 (R001) alignedtext
grestore
% 1->2
gsave
1 setlinewidth
0.53725 0.24706 0.90196 edgecolor
newpath 201.62 36.3 moveto
206.85 41.36 211.68 47.34 214.55 54 curveto
218.16 62.4 215.45 71.05 210.4 78.74 curveto
stroke
0.53725 0.24706 0.90196 edgecolor
newpath 207.61 76.62 moveto
204.19 86.65 lineto
213.12 80.95 lineto
closepath fill
1 setlinewidth
solid
0.53725 0.24706 0.90196 edgecolor
newpath 207.61 76.62 moveto
204.19 86.65 lineto
213.12 80.95 lineto
closepath stroke
grestore
% 1->1
gsave
1 setlinewidth
0 0 0 edgecolor
newpath 204.79 25.87 moveto
214.57 26.04 222.55 23.41 222.55 18 curveto
222.55 14.7 219.58 12.44 215.06 11.21 curveto
stroke
0 0 0 edgecolor
newpath 215.1 7.7 moveto
204.79 10.13 lineto
214.37 14.66 lineto
closepath fill
1 setlinewidth
solid
0 0 0 edgecolor
newpath 215.1 7.7 moveto
204.79 10.13 lineto
214.37 14.66 lineto
closepath stroke
0 0 0 edgecolor
14 /Times-Roman set_font
222.55 14.3 moveto 29 (L001) alignedtext
grestore
% 3->2
gsave
1 setlinewidth
0 0 0 edgecolor
newpath 185.86 173.93 moveto
185.35 168.23 184.85 161.85 184.55 156 curveto
184.16 148.66 183.92 140.71 183.77 133.35 curveto
stroke
0 0 0 edgecolor
newpath 187.27 133.08 moveto
183.61 123.13 lineto
180.27 133.19 lineto
closepath fill
1 setlinewidth
solid
0 0 0 edgecolor
newpath 187.27 133.08 moveto
183.61 123.13 lineto
180.27 133.19 lineto
closepath stroke
0 0 0 edgecolor
14 /Times-Roman set_font
184.55 144.8 moveto 29 (L000) alignedtext
grestore
% 3->6
gsave
1 setlinewidth
0.53725 0.24706 0.90196 edgecolor
newpath 207.42 210.12 moveto
213.02 215.51 218.86 221.71 223.55 228 curveto
228.86 235.14 233.68 243.53 237.69 251.37 curveto
stroke
0.53725 0.24706 0.90196 edgecolor
newpath 234.63 253.08 moveto
242.15 260.54 lineto
240.92 250.01 lineto
closepath fill
1 setlinewidth
solid
0.53725 0.24706 0.90196 edgecolor
newpath 234.63 253.08 moveto
242.15 260.54 lineto
240.92 250.01 lineto
closepath stroke
grestore
% 5
gsave
1 setlinewidth
0 0 0 nodecolor
newpath 91.55 123 moveto
37.55 123 lineto
37.55 87 lineto
91.55 87 lineto
closepath stroke
0 0 0 nodecolor
14 /Arial set_font
60.05 101.3 moveto 9 (5) alignedtext
grestore
% 3->5
gsave
1 setlinewidth
0 0 0 edgecolor
newpath 161.27 173.92 moveto
152.7 168.28 143.18 161.93 134.55 156 curveto
121.97 147.36 108.27 137.65 96.36 129.1 curveto
stroke
0 0 0 edgecolor
newpath 98.21 126.11 moveto
88.05 123.11 lineto
94.12 131.79 lineto
closepath fill
1 setlinewidth
solid
0 0 0 edgecolor
newpath 98.21 126.11 moveto
88.05 123.11 lineto
94.12 131.79 lineto
closepath stroke
0 0 0 edgecolor
14 /Times-Roman set_font
134.55 144.8 moveto 30 (R000) alignedtext
grestore
% 6->-2147483648
gsave
1 setlinewidth
0.53725 0.24706 0.90196 edgecolor
newpath 267.66 297.33 moveto
272.4 302.63 277.13 308.73 280.55 315 curveto
284.34 321.97 287.18 330.05 289.28 337.66 curveto
stroke
0.53725 0.24706 0.90196 edgecolor
newpath 285.93 338.71 moveto
291.69 347.6 lineto
292.73 337.06 lineto
closepath fill
1 setlinewidth
solid
0.53725 0.24706 0.90196 edgecolor
newpath 285.93 338.71 moveto
291.69 347.6 lineto
292.73 337.06 lineto
closepath stroke
grestore
% 6->9
gsave
1 setlinewidth
0 0 0 edgecolor
newpath 269.25 260.83 moveto
275.51 255.24 282.4 248.94 288.55 243 curveto
296.81 235.01 305.58 226.03 313.34 217.9 curveto
stroke
0 0 0 edgecolor
newpath 316.08 220.1 moveto
320.42 210.43 lineto
311 215.28 lineto
closepath fill
1 setlinewidth
solid
0 0 0 edgecolor
newpath 316.08 220.1 moveto
320.42 210.43 lineto
311 215.28 lineto
closepath stroke
0 0 0 edgecolor
14 /Times-Roman set_font
302.55 231.8 moveto 30 (R000) alignedtext
grestore
% 6->3
gsave
1 setlinewidth
0 0 0 edgecolor
newpath 222.28 266.74 moveto
211.98 261.12 201.16 253.28 194.55 243 curveto
190.31 236.41 188.18 228.33 187.2 220.6 curveto
stroke
0 0 0 edgecolor
newpath 190.68 220.18 moveto
186.48 210.45 lineto
183.69 220.67 lineto
closepath fill
1 setlinewidth
solid
0 0 0 edgecolor
newpath 190.68 220.18 moveto
186.48 210.45 lineto
183.69 220.67 lineto
closepath stroke
0 0 0 edgecolor
14 /Times-Roman set_font
194.55 231.8 moveto 29 (L000) alignedtext
grestore
% 5->3
gsave
1 setlinewidth
0.53725 0.24706 0.90196 edgecolor
newpath 77.22 123.44 moveto
85.51 133.91 97.09 146.92 109.55 156 curveto
122 165.08 137.17 172.55 150.82 178.22 curveto
stroke
0.53725 0.24706 0.90196 edgecolor
newpath 149.84 181.6 moveto
160.43 182.03 lineto
152.42 175.09 lineto
closepath fill
1 setlinewidth
solid
0.53725 0.24706 0.90196 edgecolor
newpath 149.84 181.6 moveto
160.43 182.03 lineto
152.42 175.09 lineto
closepath stroke
grestore
% 5->6
gsave
1 setlinewidth
0 0 0 edgecolor
newpath 70.23 123.17 moveto
78.42 145.66 95.48 185.12 121.55 210 curveto
147.92 235.18 185.45 253.64 213.06 264.92 curveto
stroke
0 0 0 edgecolor
newpath 211.79 268.18 moveto
222.37 268.61 lineto
214.37 261.68 lineto
closepath fill
1 setlinewidth
solid
0 0 0 edgecolor
newpath 211.79 268.18 moveto
222.37 268.61 lineto
214.37 261.68 lineto
closepath stroke
0 0 0 edgecolor
14 /Times-Roman set_font
121.55 188.3 moveto 30 (R001) alignedtext
grestore
% 4
gsave
1 setlinewidth
0 0 0 nodecolor
newpath 80.55 36 moveto
26.55 36 lineto
26.55 0 lineto
80.55 0 lineto
closepath stroke
0 0 0 nodecolor
14 /Arial set_font
49.05 14.3 moveto 9 (4) alignedtext
grestore
% 5->4
gsave
1 setlinewidth
0 0 0 edgecolor
newpath 37.3 95.84 moveto
24.35 90.44 10.09 81.92 2.55 69 curveto
-4.63 56.7 4.89 45.38 17.58 36.62 curveto
stroke
0 0 0 edgecolor
newpath 19.58 39.5 moveto
26.23 31.26 lineto
15.89 33.56 lineto
closepath fill
1 setlinewidth
solid
0 0 0 edgecolor
newpath 19.58 39.5 moveto
26.23 31.26 lineto
15.89 33.56 lineto
closepath stroke
0 0 0 edgecolor
14 /Times-Roman set_font
2.55 57.8 moveto 29 (L000) alignedtext
grestore
% 4->5
gsave
1 setlinewidth
0 0 0 edgecolor
newpath 52.8 36.22 moveto
52.65 45.9 52.92 58.18 54.55 69 curveto
54.93 71.57 55.45 74.22 56.05 76.85 curveto
stroke
0 0 0 edgecolor
newpath 52.73 77.97 moveto
58.66 86.75 lineto
59.5 76.19 lineto
closepath fill
1 setlinewidth
solid
0 0 0 edgecolor
newpath 52.73 77.97 moveto
58.66 86.75 lineto
59.5 76.19 lineto
closepath stroke
0 0 0 edgecolor
14 /Times-Roman set_font
54.55 57.8 moveto 30 (R001) alignedtext
grestore
% 4->5
gsave
1 setlinewidth
0.53725 0.24706 0.90196 edgecolor
newpath 73.13 36.17 moveto
77.76 41.38 82.07 47.47 84.55 54 curveto
87.52 61.83 85.96 70.3 82.68 78.01 curveto
stroke
0.53725 0.24706 0.90196 edgecolor
newpath 79.54 76.45 moveto
78.01 86.94 lineto
85.75 79.7 lineto
closepath fill
1 setlinewidth
solid
0.53725 0.24706 0.90196 edgecolor
newpath 79.54 76.45 moveto
78.01 86.94 lineto
85.75 79.7 lineto
closepath stroke
grestore
% 4->4
gsave
1 setlinewidth
0 0 0 edgecolor
newpath 80.79 25.87 moveto
90.57 26.04 98.55 23.41 98.55 18 curveto
98.55 14.7 95.58 12.44 91.06 11.21 curveto
stroke
0 0 0 edgecolor
newpath 91.1 7.7 moveto
80.79 10.13 lineto
90.37 14.66 lineto
closepath fill
1 setlinewidth
solid
0 0 0 edgecolor
newpath 91.1 7.7 moveto
80.79 10.13 lineto
90.37 14.66 lineto
closepath stroke
0 0 0 edgecolor
14 /Times-Roman set_font
98.55 14.3 moveto 29 (L001) alignedtext
grestore
% 7->9
gsave
1 setlinewidth
0.53725 0.24706 0.90196 edgecolor
newpath 282.78 114.37 moveto
296.52 119.89 312.38 128.46 322.55 141 curveto
327.81 147.5 331.1 155.86 333.15 163.87 curveto
stroke
0.53725 0.24706 0.90196 edgecolor
newpath 329.73 164.58 moveto
335.15 173.68 lineto
336.59 163.18 lineto
closepath fill
1 setlinewidth
solid
0.53725 0.24706 0.90196 edgecolor
newpath 329.73 164.58 moveto
335.15 173.68 lineto
336.59 163.18 lineto
closepath stroke
grestore
% 7->7
gsave
1 setlinewidth
0 0 0 edgecolor
newpath 282.79 112.87 moveto
292.57 113.04 300.55 110.41 300.55 105 curveto
300.55 101.7 297.58 99.44 293.06 98.21 curveto
stroke
0 0 0 edgecolor
newpath 293.1 94.7 moveto
282.79 97.13 lineto
292.37 101.66 lineto
closepath fill
1 setlinewidth
solid
0 0 0 edgecolor
newpath 293.1 94.7 moveto
282.79 97.13 lineto
292.37 101.66 lineto
closepath stroke
0 0 0 edgecolor
14 /Times-Roman set_font
300.55 101.3 moveto 29 (L001) alignedtext
grestore
% 8
gsave
1 setlinewidth
0 0 0 nodecolor
newpath 323.55 36 moveto
269.55 36 lineto
269.55 0 lineto
323.55 0 lineto
closepath stroke
0 0 0 nodecolor
14 /Arial set_font
292.05 14.3 moveto 9 (8) alignedtext
grestore
% 7->8
gsave
1 setlinewidth
0 0 0 edgecolor
newpath 263.84 86.8 moveto
269.57 74.93 277.29 58.93 283.79 45.45 curveto
stroke
0 0 0 edgecolor
newpath 287.07 46.7 moveto
288.26 36.18 lineto
280.76 43.66 lineto
closepath fill
1 setlinewidth
solid
0 0 0 edgecolor
newpath 287.07 46.7 moveto
288.26 36.18 lineto
280.76 43.66 lineto
closepath stroke
0 0 0 edgecolor
14 /Times-Roman set_font
278.55 57.8 moveto 30 (R000) alignedtext
grestore
% 8->9
gsave
1 setlinewidth
0 0 0 edgecolor
newpath 310.7 36.23 moveto
320.52 49.29 332.81 68.15 338.55 87 curveto
346.23 112.28 344.48 142.62 341.57 163.99 curveto
stroke
0 0 0 edgecolor
newpath 338.09 163.57 moveto
340.03 173.99 lineto
345.01 164.64 lineto
closepath fill
1 setlinewidth
solid
0 0 0 edgecolor
newpath 338.09 163.57 moveto
340.03 173.99 lineto
345.01 164.64 lineto
closepath stroke
0 0 0 edgecolor
14 /Times-Roman set_font
343.55 101.3 moveto 30 (R001) alignedtext
grestore
% 8->7
gsave
1 setlinewidth
0.53725 0.24706 0.90196 edgecolor
newpath 284 36.32 moveto
280.35 41.81 276.54 48.02 273.55 54 curveto
269.87 61.34 266.58 69.63 263.85 77.3 curveto
stroke
0.53725 0.24706 0.90196 edgecolor
newpath 260.48 76.33 moveto
260.59 86.92 lineto
267.11 78.57 lineto
closepath fill
1 setlinewidth
solid
0.53725 0.24706 0.90196 edgecolor
newpath 260.48 76.33 moveto
260.59 86.92 lineto
267.11 78.57 lineto
closepath stroke
grestore
% 8->8
gsave
1 setlinewidth
0 0 0 edgecolor
newpath 323.79 25.87 moveto
333.57 26.04 341.55 23.41 341.55 18 curveto
341.55 14.7 338.58 12.44 334.06 11.21 curveto
stroke
0 0 0 edgecolor
newpath 334.1 7.7 moveto
323.79 10.13 lineto
333.37 14.66 lineto
closepath fill
1 setlinewidth
solid
0 0 0 edgecolor
newpath 334.1 7.7 moveto
323.79 10.13 lineto
333.37 14.66 lineto
closepath stroke
0 0 0 edgecolor
14 /Times-Roman set_font
341.55 14.3 moveto 29 (L001) alignedtext
grestore
endpage
showpage
grestore
%%PageTrailer
%%EndPage: 1
%%Trailer
%%Pages: 1
%%BoundingBox: 36 36 560 515
end
restore
%%EOF
