digraph BST {	 graph [ranksep=0.5]; 
	 node [fontname="Arial", shape=box]; 
	7	; 
	7->7	 [label=L001]; 
	7->2147483647	 [label=R001]; 
	7->3	 [color=lightblue]; 
	2147483647	[label="inf"]; 
	2147483647->-2147483648	 [label=L000]; 
	2	; 
	2->1	 [label=L000]; 
	2->3	 [label=R001]; 
	2->3	 [color=lightblue]; 
	3	; 
	3->2	 [label=L000]; 
	3->7	 [label=R000]; 
	3->-2147483648	 [color=lightblue]; 
	1	; 
	1->1	 [label=L001]; 
	1->2	 [label=R001]; 
	1->2	 [color=lightblue]; 
	-2147483648	[label="-inf"]; 
	-2147483648->-2147483648	 [label=L001]; 
	-2147483648->3	 [label=R000]; 
	-2147483648->2147483647	 [color=lightblue]; 
}
